<?xml version="1.0" encoding="UTF-8" standalone="no"?>
<!-- Created with Inkscape (http://www.inkscape.org/) -->

<svg
   width="200"
   height="200"
   viewBox="0 0 200 200"
   version="1.1"
   id="svg2229"
   inkscape:version="1.2.1 (9c6d41e410, 2022-07-14)"
   sodipodi:docname="off-logo.svg"
   inkscape:export-filename="off-logo.png"
   inkscape:export-xdpi="96"
   inkscape:export-ydpi="96"
   xmlns:inkscape="http://www.inkscape.org/namespaces/inkscape"
   xmlns:sodipodi="http://sodipodi.sourceforge.net/DTD/sodipodi-0.dtd"
   xmlns="http://www.w3.org/2000/svg"
   xmlns:svg="http://www.w3.org/2000/svg">
  <sodipodi:namedview
     id="namedview2231"
     pagecolor="#ffffff"
     bordercolor="#666666"
     borderopacity="1.0"
     inkscape:showpageshadow="2"
     inkscape:pageopacity="1"
     inkscape:pagecheckerboard="0"
     inkscape:deskcolor="#d1d1d1"
     inkscape:document-units="mm"
     showgrid="false"
     inkscape:zoom="1.7117941"
     inkscape:cx="77.40417"
     inkscape:cy="109.24211"
     inkscape:window-width="1920"
     inkscape:window-height="1011"
     inkscape:window-x="0"
     inkscape:window-y="0"
     inkscape:window-maximized="1"
     inkscape:current-layer="layer1" />
  <defs
     id="defs2226" />
  <g
     inkscape:label="Calque 1"
     inkscape:groupmode="layer"
     id="layer1">
    <g
       id="g2113"
       transform="translate(-125.215,-69.1)">
      <g
         id="g2105">
        <path
           class="f"
           d="m 176.13,171.7 c 0,-27.11 21.97,-49.08 49.08,-49.08 27.11,0 49.08,21.97 49.08,49.08 z"
           id="path2095"
           style="fill:#ff8c14" />
        <path
           class="e"
           d="m 261.85,171.7 c 0,20.24 -16.4,36.64 -36.64,36.64 -20.24,0 -36.64,-16.4 -36.64,-36.64 z"
           id="path2097"
           style="fill:#ffffff" />
        <circle
           class="h"
           cx="241.83"
           cy="140"
           r="2.7"
           id="circle2099"
           style="fill:#8c3c00" />
        <circle
           class="h"
           cx="254.98"
           cy="152.07001"
           r="2.7"
           id="circle2101"
           style="fill:#8c3c00" />
        <circle
           class="h"
           cx="240.11"
           cy="155.02"
           r="2.7"
           id="circle2103"
           style="fill:#8c3c00" />
      </g>
      <path
         d="m 201.41,214.6 -8.72,20.82 11.48,4.81 8.8,-21 c 3.92,1.01 8.02,1.55 12.25,1.55 27.06,0 49.08,-22.02 49.08,-49.08 h -12.44 c 0,20.2 -16.44,36.64 -36.64,36.64 -20.2,0 -36.64,-16.44 -36.64,-36.64 h -12.44 c 0,18.43 10.22,34.51 25.28,42.9 z"
         id="path2107" />
      <path
         class="c"
         d="m 245.51,97.97 c -9.65,0 -18.04,5.38 -22.35,13.3 3.32,3.09 5.83,7.05 7.13,11.52 11.23,-2.52 19.66,-12.45 19.86,-24.39 -1.5,-0.28 -3.05,-0.43 -4.63,-0.43 z"
         id="path2109"
         style="fill:#00641e" />
      <path
         class="d"
         d="m 205.84,104.44 c -1.91,0 -3.77,0.22 -5.56,0.62 3.07,10.61 12.85,18.37 24.45,18.37 1.91,0 3.77,-0.22 5.56,-0.62 -3.07,-10.61 -12.85,-18.37 -24.45,-18.37 z"
         id="path2111"
         style="fill:#00961e" />
    </g>
  </g>
</svg>
